{
    "name": "DeliveryNoteEntry",
    "fields": [
        {
            "fieldName": "description",
            "fieldType": "String"
        },
        {
            "fieldName": "amount",
            "fieldType": "Integer"
        }
    ],
    "relationships": [
        {
            "relationshipName": "deliveryNote",
            "otherEntityName": "deliveryNote",
            "relationshipType": "many-to-one",
            "otherEntityField": "id"
        }
    ],
    "changelogDate": "20180920135030",
    "entityTableName": "delivery_note_entry",
    "dto": "no",
    "pagination": "no",
    "service": "no",
    "jpaMetamodelFiltering": false,
    "fluentMethods": true,
    "clientRootFolder": "DeliveryNoteService",
    "applications": "*",
    "microserviceName": "DeliveryNoteService"
}